^D:\PROJECT\TRAINING\3D\OPENGLES2.0FRAMEWORK\DEBUG\UTILITIES.LIB|D:\PROJECT\TRAINING\3D\OPENGLES2.0FRAMEWORK\NEWTRAININGFRAMEWORK\DEBUG\CAMERA.OBJ|D:\PROJECT\TRAINING\3D\OPENGLES2.0FRAMEWORK\NEWTRAININGFRAMEWORK\DEBUG\CUBEMAP.OBJ|D:\PROJECT\TRAINING\3D\OPENGLES2.0FRAMEWORK\NEWTRAININGFRAMEWORK\DEBUG\LIGHTING.OBJ|D:\PROJECT\TRAINING\3D\OPENGLES2.0FRAMEWORK\NEWTRAININGFRAMEWORK\DEBUG\MODEL.OBJ|D:\PROJECT\TRAINING\3D\OPENGLES2.0FRAMEWORK\NEWTRAININGFRAMEWORK\DEBUG\NEWTRAININGFRAMEWORK.OBJ|D:\PROJECT\TRAINING\3D\OPENGLES2.0FRAMEWORK\NEWTRAININGFRAMEWORK\DEBUG\OBJECT3D.OBJ|D:\PROJECT\TRAINING\3D\OPENGLES2.0FRAMEWORK\NEWTRAININGFRAMEWORK\DEBUG\RENDERER.OBJ|D:\PROJECT\TRAINING\3D\OPENGLES2.0FRAMEWORK\NEWTRAININGFRAMEWORK\DEBUG\SHADERS.OBJ|D:\PROJECT\TRAINING\3D\OPENGLES2.0FRAMEWORK\NEWTRAININGFRAMEWORK\DEBUG\STDAFX.OBJ|D:\PROJECT\TRAINING\3D\OPENGLES2.0FRAMEWORK\NEWTRAININGFRAMEWORK\DEBUG\TEXTURE.OBJ
D:\PROJECT\TRAINING\3D\OPENGLES2.0FRAMEWORK\LIB\LIBEGL.LIB
D:\PROJECT\TRAINING\3D\OPENGLES2.0FRAMEWORK\LIB\LIBGLESV2.LIB
C:\PROGRAM FILES (X86)\WINDOWS KITS\8.1\LIB\WINV6.3\UM\X86\KERNEL32.LIB
C:\PROGRAM FILES (X86)\WINDOWS KITS\8.1\LIB\WINV6.3\UM\X86\USER32.LIB
C:\PROGRAM FILES (X86)\WINDOWS KITS\8.1\LIB\WINV6.3\UM\X86\GDI32.LIB
C:\PROGRAM FILES (X86)\WINDOWS KITS\8.1\LIB\WINV6.3\UM\X86\WINSPOOL.LIB
C:\PROGRAM FILES (X86)\WINDOWS KITS\8.1\LIB\WINV6.3\UM\X86\COMDLG32.LIB
C:\PROGRAM FILES (X86)\WINDOWS KITS\8.1\LIB\WINV6.3\UM\X86\ADVAPI32.LIB
C:\PROGRAM FILES (X86)\WINDOWS KITS\8.1\LIB\WINV6.3\UM\X86\SHELL32.LIB
C:\PROGRAM FILES (X86)\WINDOWS KITS\8.1\LIB\WINV6.3\UM\X86\OLE32.LIB
C:\PROGRAM FILES (X86)\WINDOWS KITS\8.1\LIB\WINV6.3\UM\X86\OLEAUT32.LIB
C:\PROGRAM FILES (X86)\WINDOWS KITS\8.1\LIB\WINV6.3\UM\X86\UUID.LIB
C:\PROGRAM FILES (X86)\WINDOWS KITS\8.1\LIB\WINV6.3\UM\X86\ODBC32.LIB
C:\PROGRAM FILES (X86)\WINDOWS KITS\8.1\LIB\WINV6.3\UM\X86\ODBCCP32.LIB
D:\PROJECT\TRAINING\3D\OPENGLES2.0FRAMEWORK\NEWTRAININGFRAMEWORK\DEBUG\CAMERA.OBJ
D:\PROJECT\TRAINING\3D\OPENGLES2.0FRAMEWORK\NEWTRAININGFRAMEWORK\DEBUG\CUBEMAP.OBJ
D:\PROJECT\TRAINING\3D\OPENGLES2.0FRAMEWORK\NEWTRAININGFRAMEWORK\DEBUG\LIGHTING.OBJ
D:\PROJECT\TRAINING\3D\OPENGLES2.0FRAMEWORK\NEWTRAININGFRAMEWORK\DEBUG\MODEL.OBJ
D:\PROJECT\TRAINING\3D\OPENGLES2.0FRAMEWORK\NEWTRAININGFRAMEWORK\DEBUG\NEWTRAININGFRAMEWORK.OBJ
D:\PROJECT\TRAINING\3D\OPENGLES2.0FRAMEWORK\NEWTRAININGFRAMEWORK\DEBUG\OBJECT3D.OBJ
D:\PROJECT\TRAINING\3D\OPENGLES2.0FRAMEWORK\NEWTRAININGFRAMEWORK\DEBUG\RENDERER.OBJ
D:\PROJECT\TRAINING\3D\OPENGLES2.0FRAMEWORK\NEWTRAININGFRAMEWORK\DEBUG\SHADERS.OBJ
D:\PROJECT\TRAINING\3D\OPENGLES2.0FRAMEWORK\NEWTRAININGFRAMEWORK\DEBUG\STDAFX.OBJ
D:\PROJECT\TRAINING\3D\OPENGLES2.0FRAMEWORK\NEWTRAININGFRAMEWORK\DEBUG\TEXTURE.OBJ
D:\PROJECT\TRAINING\3D\OPENGLES2.0FRAMEWORK\DEBUG\UTILITIES.LIB
C:\WINDOWS\SYSTEM32\TZRES.DLL
C:\WINDOWS\GLOBALIZATION\SORTING\SORTDEFAULT.NLS
C:\PROGRAM FILES (X86)\MICROSOFT VISUAL STUDIO 12.0\VC\LIB\MSVCRTD.LIB
C:\PROGRAM FILES (X86)\MICROSOFT VISUAL STUDIO 12.0\VC\LIB\OLDNAMES.LIB
C:\PROGRAM FILES (X86)\MICROSOFT VISUAL STUDIO 12.0\VC\LIB\MSVCPRTD.LIB
