^D:\PROJECT\TRAINING\3D\OPENGLES2.0FRAMEWORK\DEBUG\UTILITIES.LIB|D:\PROJECT\TRAINING\3D\OPENGLES2.0FRAMEWORK\NEWTRAININGFRAMEWORK\DEBUG\CAMERA.OBJ|D:\PROJECT\TRAINING\3D\OPENGLES2.0FRAMEWORK\NEWTRAININGFRAMEWORK\DEBUG\CUBEMAP.OBJ|D:\PROJECT\TRAINING\3D\OPENGLES2.0FRAMEWORK\NEWTRAININGFRAMEWORK\DEBUG\LIGHTING.OBJ|D:\PROJECT\TRAINING\3D\OPENGLES2.0FRAMEWORK\NEWTRAININGFRAMEWORK\DEBUG\MODEL.OBJ|D:\PROJECT\TRAINING\3D\OPENGLES2.0FRAMEWORK\NEWTRAININGFRAMEWORK\DEBUG\NEWTRAININGFRAMEWORK.OBJ|D:\PROJECT\TRAINING\3D\OPENGLES2.0FRAMEWORK\NEWTRAININGFRAMEWORK\DEBUG\OBJECT3D.OBJ|D:\PROJECT\TRAINING\3D\OPENGLES2.0FRAMEWORK\NEWTRAININGFRAMEWORK\DEBUG\RENDERER.OBJ|D:\PROJECT\TRAINING\3D\OPENGLES2.0FRAMEWORK\NEWTRAININGFRAMEWORK\DEBUG\SHADERS.OBJ|D:\PROJECT\TRAINING\3D\OPENGLES2.0FRAMEWORK\NEWTRAININGFRAMEWORK\DEBUG\STDAFX.OBJ|D:\PROJECT\TRAINING\3D\OPENGLES2.0FRAMEWORK\NEWTRAININGFRAMEWORK\DEBUG\TEXTURE.OBJ
D:\PROJECT\TRAINING\3D\OPENGLES2.0FRAMEWORK\BIN\NEWTRAININGFRAMEWORK.ILK
D:\PROJECT\TRAINING\3D\OPENGLES2.0FRAMEWORK\BIN\NEWTRAININGFRAMEWORK.EXE
D:\PROJECT\TRAINING\3D\OPENGLES2.0FRAMEWORK\BIN\NEWTRAININGFRAMEWORK.PDB
